{
    "name": "Fungus",
    "references": [
        "ReflectionUtilities",
        "Localization",
        "ReorderableListUtilities",
        "SearchPopupUtilities",
        "UnityObjectUtilities",
        "UnityEditorUtilities",
        "BaseUtilities",
        "GraphWindowUtilities",
        "SaveSystem",
        "SerializationUtilities",
        "SystemUtilities",
        "SceneUtilities",
        "UIUtilities",
        "UnityEventUtilities",
        "InputUtilities",
        "VectorUtilities",
        "CameraUtilities",
        "PathfindingUtilities",
        "ResourceTrackingUtilities",
        "SerializedPropertyUtilities",
        "BaseWindowUtilities",
        "ColorPaletteUtilities"
    ],
    "optionalUnityReferences": [],
    "includePlatforms": [],
    "excludePlatforms": [],
    "allowUnsafeCode": false,
    "overrideReferences": false,
    "precompiledReferences": [],
    "autoReferenced": true,
    "defineConstraints": []
}