{
    "name": "DOTweenUtilities",
    "references": [
        "BaseUtilities",
        "UnityObjectUtilities"
    ],
    "optionalUnityReferences": [],
    "includePlatforms": [],
    "excludePlatforms": [],
    "allowUnsafeCode": false
}