KEYS,CONVERTER,DESCRIPTION,[en-GB]	English (United Kingdom),Arabic,[zh-CN]	Chinese (China),[nl-BE]	Dutch (Belgium),[fi-FI]	Finnish (Finland),[fr-FR]	French (France),[de-DE]	German (Germany),[he-IL]	Hebrew (Israel),[it-IT]	Italian (Italy),[ja-JP]	Japanese (Japan),ms-MY,[nb-NO]	Norwegian Bokmål (Norway),[pl-PL]	Polish (Poland),[pt-BR]	Portuguese (Brazil),[pt-PT]	Portuguese (Portugal),[ru-RU]	Russian (Russia),[es-ES]	Spanish (Spain),[sv-SE]	Swedish (Sweden),[tr-TR]	Turkish (Turkey),[uk-UA]	Ukrainian (Ukraine),[vi-VN]	Vietnamese (Vietnam)
fb5fec2e-cf85-41ec-951a-a961bdc03695.187+m_Text.Value,StringLocalizationConverter,[Say],"{question}Chat about what, Doctor Watson?",,,,,"{question}Parler à propos de quoi, Docteur Watson ?","{question}Worüber sollen wir reden, Doktor Watson?",,,,,,"{question}Pogawędkę o czym, doktorze Watson?",,,,,,,,
fb5fec2e-cf85-41ec-951a-a961bdc03695.189+m_Text.Value,StringLocalizationConverter,[Say],"Er, well... Something to know each other better, that kind of thing?",,,,,"Et bien... Qu'on apprenne à faire connaissance, quelque chose comme ça ?","Uhm, naja… Über uns, damit wir uns besser kennenlernen, sowas in der Richtung?",,,,,,"Um, cóż... O czymś, co pozwoli nam się lepiej poznać, coś w tym stylu?
",,,,,,,,
fb5fec2e-cf85-41ec-951a-a961bdc03695.192+m_Text.Value,StringLocalizationConverter,[Say],I already know all there is to know about you.,,,,,Je sais déjà tout ce qu'il y a à savoir sur vous.,"Ich weiß schon alles, was es über Sie zu wissen gibt.",,,,,,"Wiem już o tobie wszystko, co się da.",,,,,,,,
fb5fec2e-cf85-41ec-951a-a961bdc03695.194+m_Text.Value,StringLocalizationConverter,[Say],Right. *mumbling* I’ll have another talk with Mycroft about boundaries and privacy...,,,,,C'est vrai. *marmonnant* Il faudra que je reparle avec Mycroft des limites et de l'intimité...,… Richtig. *murmelnd* Ich muss wohl mit Mycroft nochmal über Grenzen und Privatsphäre reden… ,,,,,,Racja. *mamrocze* Muszę pogadać z Mycroftem o przestrzeni osobistej i prywatności...
,,,,,,,,
9339752d-5476-4fd5-b2bc-0bed97f46a5a+Value,StringLocalizationConverter,[StringVariable],"Well then, if that’s the case maybe we could make Mycroft wait and have a bit of a chat.",,,,,"Et bien, si c'est l'affaire peut-être pouvons-nous faire attendre Mycroft et discuter.","Nun, in diesem Fall könnten wir Mycroft ja noch etwas warten lassen und ein wenig plaudern.",,,,,,"Cóż, skoro tak, to może utniemy sobie pogawędkę i zmusimy Mycrofta, by trochę poczekał.",,,,,,,,
7134b430-293c-4602-a3bb-ad0599ccf68a.0+m_Text.Value,StringLocalizationConverter,[Say],I could use your assistance whenever you have a moment.,,,,,Je pourrais avoir recours à votre aide dès que vous avez un moment.,"Ich könnte Ihre Hilfe gebrauchen, falls Sie einen Moment Zeit für mich hätten. ",,,,,,"Przydałaby mi się Twoja pomoc, kiedy będziesz miał chwilę.",,,,,,,,
7134b430-293c-4602-a3bb-ad0599ccf68a.2+m_Text.Value,StringLocalizationConverter,[Say],{t}(Huh. I thought Mycroft said he needed me for something. So where is he? I hope he doesn’t expect me to waste all of my time trying to find him.){/t},,,,,{t}(Hum. Je pensais que Mycroft avait besoin de moi pour quelque chose. Alors où est-il ? J'espère qu'il ne veut pas que je perde tout mon temps en le cherchant.){/t},"{t}(Hm. Ich dachte, Mycroft bräuchte mich für irgendwas. Also wo ist er? Ich hoffe er erwartet nicht von mir, dass ich meine ganze Zeit damit verschwende nach ihm zu suchen.){/t}",,,,,,"{t}(Hm. Mycroft napisał, że mnie do czegoś potrzebuje. Gdzie on się w takim razie podziewa? Chyba nie oczekuje, że będę marnował swój czas, aby go znaleźć.
){/t}",,,,,,,,
7134b430-293c-4602-a3bb-ad0599ccf68a.23+m_Text.Value,StringLocalizationConverter,[Say],Hello? Mycroft?,,,,,Bonjour ? Mycroft ?,Hallo? Mycroft?,,,,,,Halo? Mycroft?,,,,,,,,
7134b430-293c-4602-a3bb-ad0599ccf68a.59+m_Text.Value,StringLocalizationConverter,[Say],"{angry}OI, MYCROFT!",,,,,"{angry} HE, MYCROFT !","{angry}HEY, MYCROFT! ",,,,,,"{angry}HEJ, MYCROFT!",,,,,,,,
7134b430-293c-4602-a3bb-ad0599ccf68a.65+m_Text.Value,StringLocalizationConverter,[Say],He says to stop shouting.,,,,,Il dit d'arrêter de crier.,"Er sagt, Sie sollen aufhören so zu schreien. ",,,,,,"Powiedział, że masz przestać krzyczeć. ",,,,,,,,
7134b430-293c-4602-a3bb-ad0599ccf68a.117+m_Text.Value,StringLocalizationConverter,[Say],"{annoyed}Jesus, don’t scare me like that!",,,,,"{annoyed} Mon dieu, ne m'effrayez pas comme ça !","{annoyed}Herr Gott, erschrecken Sie mich doch nicht so!",,,,,,"{annoyed}Jezu, nie strasz mnie tak! ",,,,,,,,
7134b430-293c-4602-a3bb-ad0599ccf68a.64+m_Text.Value,StringLocalizationConverter,[Say],"{pleased}Oh, hi. I was looking for...",,,,,"[OUTDATED]{pleased} Oh, bonjour. Je cherchais...{x}","[OUTDATED]{pleased}Oh, hi. Ich suche nach…{x}",,,,,,"[OUTDATED]{pleased}Och, cześć. Szukałem właśnie...{x}",,,,,,,,
7134b430-293c-4602-a3bb-ad0599ccf68a.125+m_Text.Value,StringLocalizationConverter,[Say],"Wait, don’t tell me.",,,,,"Attendez, ne me dites rien.","Warten Sie, sagen Sie es nicht.",,,,,,"Czekaj, nawet mi nie mów. ",,,,,,,,
7134b430-293c-4602-a3bb-ad0599ccf68a.67+m_Text.Value,StringLocalizationConverter,[Say],The car is outside. I’m supposed to let you know this won’t take very long.,,,,,La voiture est à l'extérieur. Je suis censée vous faire savoir que ça ne prendra que peu de temps.,"Das Auto steht draußen. Ich soll Ihnen ausrichten, dass es nicht viel Zeit in Anspruch nehmen wird.",,,,,,"Samochód czeka na zewnątrz. Mam ci przekazać, że nie potrwa to długo.
",,,,,,,,
7134b430-293c-4602-a3bb-ad0599ccf68a.1119+m_Text.Value,StringLocalizationConverter,[Say],So where on earth...,,,,,Mais où est-ce que…,"Also, wo zur Hölle…",,,,,,Gdzie do jasnej... ,,,,,,,,
7134b430-293c-4602-a3bb-ad0599ccf68a.1124+m_Text.Value,StringLocalizationConverter,[Say],"{annoyed}Mycroft, where are you? For that matter, where am I? Is this where I’m supposed to be meeting you?",,,,,"{annoyed}Mycroft, où êtes-vous ? Et tant qu’on y est, où suis-je ? C’est ici que je suis censé vous rencontrer ?","{annoyed}Mycroft, wo sind Sie? Was das angeht, wo bin ich? Sollte ich Sie hier treffen?",,,,,,"{annoyed}Mycroft, gdzie jesteś? A skoro już o tym mowa, gdzie ja jestem? To właśnie tu mieliśmy się spotkać?",,,,,,,,
7134b430-293c-4602-a3bb-ad0599ccf68a.1125+m_Text.Value,StringLocalizationConverter,[Say],"Oh John, I do apologise for the miscommunication. I’m waiting for a call from a certain ambassador, and I simply can’t leave my office at the moment.",,,,,"John, je m’excuse pour le malentendu. J’attends un appel d’un certain ambassadeur, et je suis dans l’incapacité de quitter mon bureau pour le moment.","Oh John, ich entschuldige mich für die Fehlkommunikation. Ich erwarte den Anruf eines bestimmten Botschafters und kann mein Büro im Moment leider nicht verlassen. ",,,,,,"Och, John, przepraszam za to nieporozumienie. Czekam na telefon od pewnego ambasadora i po prostu nie mogę teraz opuścić biura.",,,,,,,,
7134b430-293c-4602-a3bb-ad0599ccf68a.1127+m_Text.Value,StringLocalizationConverter,[Say],"Well, it’s a good thing I don’t have anything better to do than to wander around empty office buildings all day.",,,,,"Eh bien, heureusement que je n’ai rien de mieux à faire de ma vie que d’errer dans des bureaux vides toute la journée.","Schön, dann ist es ja gut, dass ich den ganzen Tag nicht Besseres zu tun habe, als in einem leeren Bürogebäude umherzuirren. ",,,,,,"Jak to dobrze, że ja nie mam nic lepszego do roboty niż łazić po pustych biurowcach cały dzień.",,,,,,,,
7134b430-293c-4602-a3bb-ad0599ccf68a.1128+m_Text.Value,StringLocalizationConverter,[Say],"If the alternative is helping my brother with one of his petty cases, I couldn’t agree more.",,,,,"Si l’alternative est d’aider mon frère à résoudre une de ses petites affaires, alors je suis on ne peut plus d’accord.","Wenn die Alternative ist, meinem Bruder bei einem seiner belanglosen Fälle zu helfen, dann stimme ich voll und ganz zu.",,,,,,"Jeśli alternatywą jest pomaganie mojemu bratu w rozwiązywaniu jednej z jego błahych spraw, nie mógłbym zgodzić się bardziej.",,,,,,,,
7134b430-293c-4602-a3bb-ad0599ccf68a.1130+m_Text.Value,StringLocalizationConverter,[Say],*sigh* {w=0.2}So what is it I’m supposed to be doing here?,,,,,*sigh* {w=0.2}Qu’est-ce que je suis censé faire ici ?,"*seufz* {w=0.2}Also, warum bin ich hier?",,,,,,*wzdycha* {w=0.2}A więc co właściwie tutaj robię?,,,,,,,,
7134b430-293c-4602-a3bb-ad0599ccf68a.1132+m_Text.Value,StringLocalizationConverter,[Say],Do you see the monitors in front of you? ,,,,,[OUTDATED]Voyez-vous les écrans situés en face de vous ? {x},[OUTDATED]Sehen Sie die Monitore vor Ihnen? {x},,,,,,"[OUTDATED]Widzisz ekrany, które znajdują się przed tobą? {x}",,,,,,,,
7134b430-293c-4602-a3bb-ad0599ccf68a.1135+m_Text.Value,StringLocalizationConverter,[Say],"In a moment, they will begin displaying CCTV footage recorded from four different locations, each over the course of the same 24 hours: a hotel room, a coffee shop, a garage, and a street corner.",,,,,"Dans un instant, ils vont diffuser des séquences de vidéosurveillance enregistrées il y a environ un mois dans quatre lieux différents : une chambre d’hôtel, un café, un garage et un coin de rue.","Gleich, werden sie Aufnahmen zeigen, die von Überwachungkameras an vier verschiedenen Orten aufgenommen wurden, zur selben Zeit, in einem Rahmen von 24 Stunden: einem Hotelzimmer, einem Café, einer Autowerkstatt und einer Straßenecke.",,,,,,"Za chwilę zobaczysz dwudziestoczterogodzinne nagrania z monitoringu miejskiego, pochodzące z czterech różnych lokacji: pokoju hotelowego, kawiarni, garażu oraz rogu ulicy.",,,,,,,,
7134b430-293c-4602-a3bb-ad0599ccf68a.1136+m_Text.Value,StringLocalizationConverter,[Say],I need someone to scour these tapes for one particular woman by the name of Erika Rose. I’m sending you her photograph now.,,,,,"J’ai besoin que quelqu’un parcoure ces images afin d’y relever les différentes apparitions d’une femme, Erika Rose. Je vous envoie sa photo.","Ich brauche jemanden, der auf diesen Videos nach einer bestimmten Frau sucht, ihr Name ist Erika Rose. Ich schicke Ihnen jetzt ein Foto von ihr.",,,,,,"Potrzebuję kogoś, kto przejrzy te taśmy, szukając na nich jednej konkretnej kobiety imieniem Erika Rose. Przesyłam ci teraz jej zdjęcie.",,,,,,,,
7134b430-293c-4602-a3bb-ad0599ccf68a.1142+m_Text.Value,StringLocalizationConverter,[Say],There’s no way that’s her real hair colour.,,,,,Ça ne peut pas être sa vraie couleur de cheveux.,Das kann auf keinen Fall ihre echte Haarfarbe sein.,,,,,," Nie ma mowy, żeby to był jej naturalny kolor włosów.",,,,,,,,
7134b430-293c-4602-a3bb-ad0599ccf68a.1147+m_Text.Value,StringLocalizationConverter,[Say],Most everything about this woman is disingenuous. We need to know exactly what she was doing and at what time.,,,,,"Aucun détail concernant cette femme ne semble être « vrai ». Nous devons savoir exactement ce qu’elle faisait, et à quelle heure, ce 5 février.",Fast alles an dieser Frau ist nicht echt. Wir müssen genau wissen was sie getan hat und wann.,,,,,,Praktycznie wszystko w tej kobiecie jest ułudą. Musimy dowiedzieć się dokładnie co robiła i o której godzinie.,,,,,,,,
7134b430-293c-4602-a3bb-ad0599ccf68a.1149+m_Text.Value,StringLocalizationConverter,[Say],"{question}Why, what did she do?",,,,,{question}Pourquoi ? Qu’a-t-elle fait ?,"{question}Warum, was hat sie getan?",,,,,,{question}Dlaczego? Co takiego zrobiła?,,,,,,,,
7134b430-293c-4602-a3bb-ad0599ccf68a.1150+m_Text.Value,StringLocalizationConverter,[Say],"That is not your concern, but it is mine. And believe me, you’ll be doing a great service to your Queen and country by--",,,,,"Cela ne vous regarde pas ; ce sont mes affaires. Et croyez-moi, vous rendrez un fier service à votre Reine et à votre pays en…","Nichts was Sie etwas angeht, aber mich. Und glauben Sie mir, Sie werden Ihrer Königin und Ihrem Land einen großen Dienst erweisen wenn Sie--",,,,,,"To nie twoje, lecz moje zmartwienie. Wierz mi jednak, że przysłużysz się bardzo królowej oraz swojemu krajowi, jeśli—",,,,,,,,
7134b430-293c-4602-a3bb-ad0599ccf68a.1152+m_Text.Value,StringLocalizationConverter,[Say],"Yeah, yeah, I get it. ",,,,,"[OUTDATED]Oui, {nw}oui, j’ai compris.{x}","[OUTDATED]Schon gut,{nw} ich versteh schon. {x}",,,,,,"[OUTDATED]Dobra,{nw} dobra, rozumiem. {x}",,,,,,,,
7134b430-293c-4602-a3bb-ad0599ccf68a.1154+m_Text.Value,StringLocalizationConverter,[Say],"Well, I guess I have nothing much on at the moment. I can spend the rest of the day playing {i}Where’s Wally{/i}.",,,,,"Bon, vu que je n’ai pas grand-chose d’autre à faire, je peux bien passer le reste de la journée à jouer à {i}Où est Charlie.{/i}","Schön, ich schätze ich habe im Moment wirklich nichts Besseres zu tun. Dann kann ich den Rest des Tages damit verbringen {i}Wo ist Walter{/i} zu spielen.",,,,,,"I tak nie jestem jakoś specjalnie zajęty. Równie dobrze mogę spędzić resztę dnia, bawiąc się w {i}Gdzie jest Wally{/i}.
",,,,,,,,
7134b430-293c-4602-a3bb-ad0599ccf68a.1155+m_Text.Value,StringLocalizationConverter,[Say],"Oh no, I’m afraid you can’t spend all day. You have until the security guard returns from his lunch break in one hour, and if you’re unable to complete the task by then, well...",,,,,"Oh non, je crains fort que vous ne puissiez pas y passer la journée. Vous avez jusqu’au retour du gardien de sa pause déjeuner, soit une heure. Si vous échouez, eh bien...","Oh nein, es tut mir Leid, aber Sie haben nicht den ganzen Tag dafür. Sie haben nur Zeit, bis der Wachmann von seiner Mittagspause zurück kommt, sprich eine Stunde und wenn es bis dahin nicht geschafft ist, naja dann…",,,,,,"Och nie, obawiam się, że nie masz reszty dnia. Za godzinę strażnik powróci ze swojej przerwy na lunch, a jeśli do tego czasu nie uda ci się wypełnić zadania, cóż...",,,,,,,,
7134b430-293c-4602-a3bb-ad0599ccf68a.1157+m_Text.Value,StringLocalizationConverter,[Say],"An {annoyed}{i}hour{/i}? How am I supposed to watch four days’ worth of material in an hour?! Wait, is any of this actually legal...?",,,,,"Une{annoyed}{i} heure{/i} ? Comment suis-je supposé regarder quatre fois 24h en seulement une heure ?! Attendez… Est-ce que tout cela est bien légal, au moins…?","Eine {annoyed}{i}Stunde{/i}? Wie soll ich mir bitte Videomaterial von vier Tagen in einer Stunde ansehen?! Warte, ist das hier überhaupt legal…? ",,,,,,"{annoyed}{i}Godzinę?{/i}? Niby jakim cudem mogę obejrzeć taśmy z czterech dni w godzinę? Zaraz, czy to w ogóle legalne...?",,,,,,,,
7134b430-293c-4602-a3bb-ad0599ccf68a.1158+m_Text.Value,StringLocalizationConverter,[Say],And now you have fifty-nine minutes.,,,,,"Et maintenant, vous avez cinquante-neuf minutes.",Und jetzt haben Sie noch 59 Minuten.,,,,,,A teraz zostało ci tylko pięćdziesiąt dziewięć minut.,,,,,,,,
7134b430-293c-4602-a3bb-ad0599ccf68a.1160+m_Text.Value,StringLocalizationConverter,[Say],"Don’t fret: all four locations will be on display at once, and playing back at top speed, so you should have plenty of time to track Roses’s whereabouts that day. I have complete trust in your keen eyesight.",,,,,"Ne vous inquiétez pas : tous les lieux seront visibles en même temps sur les écrans, et passeront en vitesse accélérée. Vous devriez donc avoir amplement le temps de suivre les allées et venues de Mme Rose. ","Regen Sie sich nicht auf: alle vier Orte werden auf einmal sichtbar sein und die Videos werden in Höchstgeschwindigkeit abgespielt, also sollten Sie genug Zeit haben, herauszufinden wo Rose an dem Tag war. Ich vertraue komplett auf Ihr scharfes Auge.",,,,,,"Nie denerwuj się: wszystkie taśmy zostaną wyświetlone jednocześnie w maksymalnej szybkości, więc będziesz miał mnóstwo czasu, by śledzić jak przemieszczała się Rose tamtego dnia. Mam całkowite zaufanie do twojego bystrego wzroku.",,,,,,,,
7134b430-293c-4602-a3bb-ad0599ccf68a.1161+m_Text.Value,StringLocalizationConverter,[Say],"If you’re desperate, I may be able to cause a distraction and buy you more time. But if the security guard should return early, I’m sure you understand that I was never involved in this little project.",,,,,"J’ai entièrement confiance en votre œil de lynx. Et si le gardien revenait plus tôt que prévu, vous savez pertinemment que je n’ai absolument rien à voir avec ce petit projet.","Wenn Sie verzweifeln sollten, kann ich wahrscheinlich für Ablenkung sorgen und Ihnen noch etwas Zeit verschaffen. Aber wenn der Wachmann zu früh zurück kommt, verstehen Sie sicher, dass ich mit alledem nichts zu tun hatte.",,,,,,"W razie problemu, być może uda mi się wywołać jakieś zamieszanie i zyskać nieco więcej czasu. Jeżeli jednak zdarzy się, że strażnik wróci wcześniej, mam nadzieję, że rozumiesz, iż nigdy nie byłem zamieszany w to małe przedsięwzięcie.",,,,,,,,
7134b430-293c-4602-a3bb-ad0599ccf68a.1034+m_Text.Value,StringLocalizationConverter,[Say],"Oh well, I might as well look for him since I’m here.",,,,,"Oh et bien, je pourrais le chercher puisque je suis là.","Na gut, wenn ich schon mal hier bin, kann ich auch nach ihm suchen.",,,,,,"No cóż, skoro już tu jestem, mogę go poszukać. ",,,,,,,,
7134b430-293c-4602-a3bb-ad0599ccf68a.1035+m_Text.Value,StringLocalizationConverter,[Say],"Forget it. If he really needs me, he never has any trouble finding me.",,,,,"Oublions ça. Quand il a vraiment besoin de moi, il arrive toujours à savoir où je suis.","Vergiss es. Wenn er mich wirklich braucht, wird er mich so oder so finden.",,,,,,"Nie ma mowy. Kiedy naprawdę coś chce, nigdy nie ma problemów, by mnie znaleźć.",,,,,,,,
7134b430-293c-4602-a3bb-ad0599ccf68a.9+m_Text.Value,StringLocalizationConverter,[Say],{t}(Looks like he still hasn’t shown up.){/t},,,,,{t}(On dirait qu'il ne s'est toujours pas montré.){/t},{t}(Scheint als ob er immer noch nicht aufgetaucht ist.){/t},,,,,,"{t}(Wygląda na to, że jeszcze się nie pojawił. ){/t}",,,,,,,,
7134b430-293c-4602-a3bb-ad0599ccf68a.1049+m_Text.Value,StringLocalizationConverter,[Say],"Oh well, I might as well look for him since I’m here.",,,,,,,,,,,,,,,,,,,,
7134b430-293c-4602-a3bb-ad0599ccf68a.254+m_Text.Value,StringLocalizationConverter,[Choice],You know what wouldn’t take very long? If Mycroft would just phone me instead.,,,,,Vous savez ce qui ne prendrais pas longtemps ? Si Mycroft m'appelait simplement.,"Wissen Sie, was nicht viel Zeit in Anspruch nehmen würde? Wenn Mycroft mich statt dessen einfach anrufen würde.",,,,,,Wiesz co nie potrwałoby długo? Gdyby Mycroft po prostu raczył do mnie zadzwonić.,,,,,,,,
7134b430-293c-4602-a3bb-ad0599ccf68a.1075+m_Text.Value,StringLocalizationConverter,[Say],The security guard whose office you are occupying is now one street away. I suggest that you don’t dally.,,,,,Le gardien dont vous envahissez le bureau n’est qu’à une rue d’ici. Je vous suggère de ne pas lambiner.,"Der Wachmann, dessen Büro Sie belagern, ist nur noch eine Straße entfernt. Ich würde vorschlagen, dass Sie nicht trödeln.",,,,,,"Strażnik, w którego biurze obecnie urzędujesz, znajduje się ulicę stąd. Sugeruję, abyś się nie ociągał. ",,,,,,,,
7134b430-293c-4602-a3bb-ad0599ccf68a.1077+m_Text.Value,StringLocalizationConverter,[Say],You don’t have to tell me twice. I’m getting out of here.,,,,,Pas besoin de me le dire deux fois. Je file.,Das müssen Sie mir nicht zweimal sagen. Ich verschwinde von hier. ,,,,,,Nie musisz mi tego powtarzać dwa razy. Spadam stąd.,,,,,,,,
7134b430-293c-4602-a3bb-ad0599ccf68a.1078+m_Text.Value,StringLocalizationConverter,[Say],And did you manage to compile a full day of the woman’s activities?,,,,,Et avez-vous réussi à rassembler tout ce qui concerne les activités de cette femme ce jour-là ?,"Und haben Sie es geschafft heraus zu finden, was die Frau den ganzen Tag gemacht hat?",,,,,,A czy udało ci się poznać ruchy kobiety w ciągu całego dnia?,,,,,,,,
7134b430-293c-4602-a3bb-ad0599ccf68a.1080+m_Text.Value,StringLocalizationConverter,[Say],"Well, maybe not a {i}full{/i} day. If I could go through the tapes one more time...",,,,,"Eh bien, pas exactement {i}tout{/i}, non. Si je pouvais regarder les vidéos encore une fois...
\n ","Naja, vielleicht nicht den {i}ganzen{/i} Tag. Wenn ich mir die Videos noch einmal ansehen könnte…",,,,,,"Cóż, może nie w ciągu {i}całego{/i} dnia. Gdybym mógł przejrzeć taśmy jeszcze raz...
",,,,,,,,
7134b430-293c-4602-a3bb-ad0599ccf68a.1081+m_Text.Value,StringLocalizationConverter,[Say],"Unfortunately, we are both out of time. And I was {i}so{/i} hoping I could rely on your quick reflexes.",,,,,"Malheureusement, le temps nous manque à tous les deux. Moi qui espérais {i}tant{/i} pouvoir compter sur vos réflexes.","Leider haben wir beide keine Zeit mehr dafür. Und ich hatte {i}so{/i} gehofft, ich könnte mich auf Ihre schnellen Reflexe verlassen.",,,,,,"Niestety, nam obu skończył się czas. A miałem {i}wielką{/i} nadzieję, że mogę polegać na twoich szybkich reakcjach. ",,,,,,,,
7134b430-293c-4602-a3bb-ad0599ccf68a.1086+m_Text.Value,StringLocalizationConverter,[Say],"{worried}Guilt trip me later, Mycroft. I seriously need to find an exit right now.",,,,,"{worried} Vous me ferez culpabiliser plus tard, Mycroft. Là, tout de suite, j’ai vraiment besoin de trouver la sortie.","{worried}Sie können mir später ein schlechtes Gewissen machen, Mycroft. Ich muss jetzt dringend einen Ausgang finden.",,,,,,"{worried}Możesz suszyć mi głowę później, Mycroft. Naprawdę muszę teraz szybko znaleźć stąd wyjście. ",,,,,,,,
7134b430-293c-4602-a3bb-ad0599ccf68a.1059+m_Text.Value,StringLocalizationConverter,[Say],{pleased}I’ve done it. I wrote down everything this Erika woman did that day.,,,,,{pleased}J’ai réussi. J’ai noté tout ce qu’a fait Erika ce jour-là.,"{pleased}Ich hab es geschafft. Ich habe alles notiert, was diese Erika an dem Tag gemacht hat.",,,,,,"{pleased}Udało mi się. Spisałem wszystko, co ta Erika robiła przez cały dzień.",,,,,,,,
7134b430-293c-4602-a3bb-ad0599ccf68a.1060+m_Text.Value,StringLocalizationConverter,[Say],Your timing is impeccable. The security guard is less than a street away.,,,,,Votre timing est impeccable. Le garde est à moins d’une rue d’ici.,Ihr Timing könnte nicht besser sein. Der Wachmann ist ist weniger als eine Straße entfernt.,,,,,,Wspaniałe wyczucie czasu. Strażnik znajduje się niecałą ulicę stąd.,,,,,,,,
7134b430-293c-4602-a3bb-ad0599ccf68a.1062+m_Text.Value,StringLocalizationConverter,[Say],"Gee, thanks for the advance warning. What do I do with all of this, then?",,,,,"[OUTDATED]Euh, merci de me prévenir. Qu’est-ce que je fais de tout ça, {nw}maintenant ?","[OUTDATED]Oh Mann, danke für die Vorwarnung. Was mache ich denn jetzt mit alldem?",,,,,,"[OUTDATED]Super, dzięki za uprzedzenie. Co mam teraz z tym wszystkim zrobić?",,,,,,,,
7134b430-293c-4602-a3bb-ad0599ccf68a.1063+m_Text.Value,StringLocalizationConverter,[Say],"I will restore the monitors, and someone will visit you shortly to retrieve your notes. For now, I suggest you locate an exit.",,,,,"Je vais remettre les écrans dans leur état initial. Quelqu'un viendra vous rendre visite sous peu afin de récupérer vos notes. Pour l’instant, je vous recommande de trouver la sortie.","Ich werde die Monitore zurücksetzen und jemand wird Sie in Kürze aufsuchen, um die Notizen an sich zu nehmen. Nun würde ich Ihnen jedoch vorschlagen den nächsten Ausgang zu suchen.",,,,,,"Zaraz przywrócę monitory do pierwotnego stanu. Ktoś niedługo cię odwiedzi, żeby odebrać notatki. Póki co, sugeruję, abyś zlokalizował wyjście.",,,,,,,,
7134b430-293c-4602-a3bb-ad0599ccf68a.1065+m_Text.Value,StringLocalizationConverter,[Say],Not a bad idea. I don’t suppose you could cause some sort of distraction for me?,,,,,Bonne idée. Je suppose que c’est trop vous demander que de faire diversion pour moi ?,"Keine schlechte Idee. Ich denke nicht, dass Sie irgendeine Ablenkung für mich verursachen können?",,,,,,To nie taki zły pomysł. Nie mógłbyś wywołać jakiegoś zamieszania i mi pomóc?,,,,,,,,
7134b430-293c-4602-a3bb-ad0599ccf68a.1067+m_Text.Value,StringLocalizationConverter,[Say],"Ah, there’s the ambassador. I’ll speak with you soon, John.",,,,,"[OUTDATED]Ah, voilà l’ambassadeur. Je vous parlerai plus tard, {nw}John.","[OUTDATED]Ah, da ist der Botschafter. Ich werde mich bald bei Ihnen melden,{nw} John. ",,,,,,"[OUTDATED]Ach, to właśnie ambasador. Porozmawiamy wkrótce,{nw} John.",,,,,,,,
61800ca4-ce2c-4eac-a3bb-3a7f861bb672+Value,StringLocalizationConverter,[StringVariable],Look for Mycroft?,,,,,Chercher Mycroft ?,Nach Mycroft suchen?,,,,,,Poszukasz Mycrofta?,,,,,,,,
d1c70339-2327-4dbb-881c-f5c7619d11e7+Value,StringLocalizationConverter,[StringVariable],Look for Mycroft?,,,,,,,,,,,,,,,,,,,,
3118d7a4-248d-41bd-89ba-7156f61538ed.782+m_Text.Value,StringLocalizationConverter,[Say],"Oops, obviously not her.",,,,,,,,,,,,,,,,,,,,
3118d7a4-248d-41bd-89ba-7156f61538ed.783+m_Text.Value,StringLocalizationConverter,[Say],This is where Sherlock would tell me I’m not observing again.,,,,,,,,,,,,,,,,,,,,
3118d7a4-248d-41bd-89ba-7156f61538ed.784+m_Text.Value,StringLocalizationConverter,[Say],"Shoot, I could have sworn...",,,,,,,,,,,,,,,,,,,,
1586cdf9-755e-4846-9824-bff729b20305+Value,StringLocalizationConverter,[StringVariable],Big Brother,,,,,,,,,,,,,,,,,,,,
40f81ba7-a235-4839-be3c-57eb0ff6b292+Value,StringLocalizationConverter,[StringVariable],"Whenever Erika appears on a monitor, click on that monitor to pause the tape and record her location. You must find Erika at least 10 times before the guard returns.",,,,,,,,,,,,,,,,,,,,
d4890a4f-bde0-4eaf-9e24-ff8680df0dde+Value,StringLocalizationConverter,[StringVariable],The guard has suddenly recalled something urgent that needs attention. Use the extra time wisely.,,,,,,,,,,,,,,,,,,,,
04ede06f-49da-4949-a68f-572a34623ae3+Value,StringLocalizationConverter,[StringVariable],I can only distract this man for so long. You had better increase your speed.,,,,,,,,,,,,,,,,,,,,
6cb4e2ba-e464-45f8-8dd3-6ee16a8c13c2+Value,StringLocalizationConverter,[StringVariable],My interference is becoming far too suspicious. I won’t be able to stall for you again.,,,,,,,,,,,,,,,,,,,,
