KEYS,CONVERTER,DESCRIPTION,[en-GB]	English (United Kingdom),Arabic,[zh-CN]	Chinese (China),[nl-BE]	Dutch (Belgium),[fi-FI]	Finnish (Finland),[fr-FR]	French (France),[de-DE]	German (Germany),[he-IL]	Hebrew (Israel),[it-IT]	Italian (Italy),[ja-JP]	Japanese (Japan),ms-MY,[nb-NO]	Norwegian Bokmål (Norway),[pl-PL]	Polish (Poland),[pt-BR]	Portuguese (Brazil),[pt-PT]	Portuguese (Portugal),[ru-RU]	Russian (Russia),[es-ES]	Spanish (Spain),[sv-SE]	Swedish (Sweden),[tr-TR]	Turkish (Turkey),[uk-UA]	Ukrainian (Ukraine),[vi-VN]	Vietnamese (Vietnam)
0d36c322-71a9-4b92-bef9-b8c2c8e7035a+Value,StringLocalizationConverter,[StringVariable],221A Baker Street,,221A貝克街,,,,221A Baker Street,,,,,,,,,,,,221A Baker Sokağı,,
6d000ea5-ec16-4564-8f21-be7fa9837a07+Value,StringLocalizationConverter,[StringVariable],221 Baker Street,,221貝克街,,,,221 Baker Street,,,,,,,,,,,,221 Baker Sokağı,,
155d2cf5-0a3c-4f25-83d7-43a812747a01+Value,StringLocalizationConverter,[StringVariable],221B Baker Street,,221B貝克街,,,,221B Baker Street,,,,,,,,,,,,221B Baker Sokağı,,
66aa2a6e-2fbf-4310-8a3e-b489e0891244+Value,StringLocalizationConverter,[StringVariable],Angelo's,,安吉洛,,,,Angelo's,,,,,,,,,,,,Angelo'nun Yeri,,
e30833ba-1956-41b4-bb2b-6e7f59540aeb+Value,StringLocalizationConverter,[StringVariable],Call Centre Office,,,,,,,,,,,,,,,,,,,,
caa15216-e96f-4b82-9b12-3da422f5f826+Value,StringLocalizationConverter,[StringVariable],Ella's Office,,,,,,Ella's Büro,,,,,,,,,,,,Ella'nın Ofisi,,
26c3ba8f-a34e-46ad-91df-2ce4d017def5+Value,StringLocalizationConverter,[StringVariable],Hyde Park,,,,,,Hyde Park,,,,,,,,,,,,Hyde Park,,
62e8dbcc-4f45-4765-af14-4bd4a195547b+Value,StringLocalizationConverter,[StringVariable],New Scotland Yard,,新蘇格蘭場,,,,New Scotland Yard,,,,,,,,,,,,Londra Emniyet Müdürlüğü ,,
f604e1ff-5845-46dc-91ee-4997b1477ecb+Value,StringLocalizationConverter,[StringVariable],Speedy's Cafe,,Speedy's 咖啡店,,,,Speedy's Cafe,,,,,,,,,,,,Kafe Speedy,,
2b60fe24-3a8d-44b3-882b-d4487d3bfcc8+Value,StringLocalizationConverter,[StringVariable],St Bart's,,,,,,St. Bart,,,,,,,,,,,,[OUTDATED]St. Bart's,,
6326b87d-41e4-4a67-b184-aa2af857c116+Value,StringLocalizationConverter,[StringVariable],Tesco's,,,,,,Tesco,,,,,,,,,,,,Tesco's,,
e5f142b7-bf9c-4b71-bbae-d6e3fe0dd756+Value,StringLocalizationConverter,[StringVariable],The Clinic,,,,,,Die Klinik,,,,,,,,,,,,Sağlık Ocağı,,
0682715f-a3b1-48c2-b3e8-544c20b3b4d4+Value,StringLocalizationConverter,[StringVariable],The Diogenes Club,,第歐根尼俱樂部,,,,Der Diogenes Club,,,,,,,,,,,,Diyojen Kulübü,,
7d36bbdc-5a1a-4cee-8751-a08b7b978c6f+Value,StringLocalizationConverter,[StringVariable],The Pub,,,,,,Der Pub,,,,,,,,,,,,Bar,,
