Key,Description,Standard,Yoda
Say.~Flowchart.1,SAY (JOHN),aesf,BLAH
Say.~Flowchart.3,SAY (JOHN),asdf,BLAH BLAH
Say.~Flowchart.4,SAY (JOHN),adsf,BLAH BLAH BALH
Say.~Flowchart.2,SAY (JOHN),this is untranslated,TRANSLATED THIS IS
