%YAML 1.1
%TAG !u! tag:unity3d.com,2011:
--- !u!114 &11400000
MonoBehaviour:
  m_ObjectHideFlags: 0
  m_CorrespondingSourceObject: {fileID: 0}
  m_PrefabInstance: {fileID: 0}
  m_PrefabAsset: {fileID: 0}
  m_GameObject: {fileID: 0}
  m_Enabled: 1
  m_EditorHideFlags: 0
  m_Script: {fileID: 11500000, guid: 0216470116401664dad3eb49fa358305, type: 3}
  m_Name: AudioManager
  m_EditorClassIdentifier: 
  m_Key: 11400000_729844374bff33446bf30e335e4860cf
  m_AudioMixer: {fileID: 24100000, guid: 15de646dc027e924a8bb414ef0f7b2b0, type: 2}
  m_AudioMixerSettings:
  - m_AudioMixerGroup: {fileID: 24300001, guid: 15de646dc027e924a8bb414ef0f7b2b0,
      type: 2}
    m_VolumeParameter: MasterVolume
    m_PitchParameter: MasterPitch
  - m_AudioMixerGroup: {fileID: 243345571651470718, guid: 15de646dc027e924a8bb414ef0f7b2b0,
      type: 2}
    m_VolumeParameter: VoiceVolume
    m_PitchParameter: VoicePitch
  - m_AudioMixerGroup: {fileID: 243766449706326906, guid: 15de646dc027e924a8bb414ef0f7b2b0,
      type: 2}
    m_VolumeParameter: SoundVolume
    m_PitchParameter: SoundPitch
  - m_AudioMixerGroup: {fileID: 243053260446599986, guid: 15de646dc027e924a8bb414ef0f7b2b0,
      type: 2}
    m_VolumeParameter: MusicVolume
    m_PitchParameter: MusicPitch
